{
    "dev" : {
		"api" : "http://localhost:3000/api/"
	},
    "prod" : {
		"api" : "http://159.203.221.101:3000/api/"
	},
    "current" : "http://159.203.221.101:3000/api/",
	"website" : "http://159.203.221.101/:8000"
}
